module codeberg.org/aryak/mozhi

go 1.23.3

toolchain go1.23.4

replace github.com/OwO-Network/gdeeplx => github.com/gi-yt/gdeeplx v0.0.0-20230817133036-0eb71706cd51

//replace codeberg.org/aryak/libmozhi => /home/arya/projects/mozhi/libmozhi

require (
	codeberg.org/aryak/libmozhi v0.0.0-20250119080808-74421e4dcbb9
	github.com/gofiber/fiber/v2 v2.52.5
	github.com/gofiber/swagger v1.1.0
	github.com/gofiber/template v1.8.0
	github.com/joho/godotenv v1.5.1
	github.com/ktr0731/go-fuzzyfinder v0.8.0
	github.com/spf13/cobra v1.8.1
	github.com/swaggo/swag v1.16.4
)

require (
	github.com/KyleBanks/depth v1.2.1 // indirect
	github.com/OwO-Network/DeepLX v1.0.1 // indirect
	github.com/PuerkitoBio/goquery v1.10.1 // indirect
	github.com/abadojack/whatlanggo v1.0.1 // indirect
	github.com/andybalholm/brotli v1.1.1 // indirect
	github.com/andybalholm/cascadia v1.3.3 // indirect
	github.com/antchfx/htmlquery v1.3.4 // indirect
	github.com/antchfx/xmlquery v1.4.3 // indirect
	github.com/antchfx/xpath v1.3.3 // indirect
	github.com/carlmjohnson/requests v0.24.3 // indirect
	github.com/cloudflare/circl v1.5.0 // indirect
	github.com/gdamore/encoding v1.0.1 // indirect
	github.com/gdamore/tcell/v2 v2.7.4 // indirect
	github.com/go-openapi/jsonpointer v0.21.0 // indirect
	github.com/go-openapi/jsonreference v0.21.0 // indirect
	github.com/go-openapi/spec v0.21.0 // indirect
	github.com/go-openapi/swag v0.23.0 // indirect
	github.com/go-task/slim-sprig/v3 v3.0.0 // indirect
	github.com/gobwas/glob v0.2.3 // indirect
	github.com/gocolly/colly v1.2.0 // indirect
	github.com/golang/groupcache v0.0.0-20241129210726-2c02b8208cf8 // indirect
	github.com/golang/protobuf v1.5.4 // indirect
	github.com/google/go-querystring v1.1.0 // indirect
	github.com/google/pprof v0.0.0-20241210010833-40e02aabc2ad // indirect
	github.com/google/uuid v1.6.0 // indirect
	github.com/hashicorp/errwrap v1.1.0 // indirect
	github.com/hashicorp/go-multierror v1.1.1 // indirect
	github.com/imroc/req/v3 v3.49.1 // indirect
	github.com/inconshreveable/mousetrap v1.1.0 // indirect
	github.com/josharian/intern v1.0.0 // indirect
	github.com/kennygrant/sanitize v1.2.4 // indirect
	github.com/klauspost/compress v1.17.11 // indirect
	github.com/ktr0731/go-ansisgr v0.1.0 // indirect
	github.com/lucasb-eyer/go-colorful v1.2.0 // indirect
	github.com/mailru/easyjson v0.9.0 // indirect
	github.com/mattn/go-colorable v0.1.13 // indirect
	github.com/mattn/go-isatty v0.0.20 // indirect
	github.com/mattn/go-runewidth v0.0.16 // indirect
	github.com/nsf/termbox-go v1.1.1 // indirect
	github.com/onsi/ginkgo/v2 v2.22.2 // indirect
	github.com/pkg/errors v0.9.1 // indirect
	github.com/quic-go/qpack v0.5.1 // indirect
	github.com/quic-go/quic-go v0.48.2 // indirect
	github.com/refraction-networking/utls v1.6.7 // indirect
	github.com/rivo/uniseg v0.4.7 // indirect
	github.com/saintfish/chardet v0.0.0-20230101081208-5e3ef4b5456d // indirect
	github.com/spf13/pflag v1.0.5 // indirect
	github.com/swaggo/files/v2 v2.0.1 // indirect
	github.com/temoto/robotstxt v1.1.2 // indirect
	github.com/tidwall/gjson v1.18.0 // indirect
	github.com/tidwall/match v1.1.1 // indirect
	github.com/tidwall/pretty v1.2.1 // indirect
	github.com/valyala/bytebufferpool v1.0.0 // indirect
	github.com/valyala/fasthttp v1.58.0 // indirect
	github.com/valyala/tcplisten v1.0.0 // indirect
	go.uber.org/mock v0.5.0 // indirect
	golang.org/x/crypto v0.32.0 // indirect
	golang.org/x/exp v0.0.0-20250106191152-7588d65b2ba8 // indirect
	golang.org/x/mod v0.22.0 // indirect
	golang.org/x/net v0.34.0 // indirect
	golang.org/x/sync v0.10.0 // indirect
	golang.org/x/sys v0.29.0 // indirect
	golang.org/x/term v0.28.0 // indirect
	golang.org/x/text v0.21.0 // indirect
	golang.org/x/tools v0.29.0 // indirect
	google.golang.org/appengine v1.6.8 // indirect
	google.golang.org/protobuf v1.36.3 // indirect
	gopkg.in/yaml.v3 v3.0.1 // indirect
)
