[
    {
        "country": "India",
        "link": "https://mozhi.aryak.me",
        "cloudflare": false,
        "host": "Airtel"
    },
    {
        "country": "USA",
        "link": "https://nyc1.mz.ggtyler.dev",
        "cloudflare": false,
        "host": "Royale Hosting"
    },
    {
        "country": "Germany / USA / India",
        "link": "https://translate.projectsegfau.lt",
        "cloudflare": false,
        "host": "Avoro / Racknerd / Airtel"
    },
    {
        "country": "Ukraine",
        "link": "https://translate.nerdvpn.de",
        "cloudflare": false,
        "host": "vsys.host"
    },
    {
        "country": "Germany",
        "link": "https://mozhi.ducks.party",
        "cloudflare": false,
        "host": "Datalix"
    },
    {
        "country": "Germany",
        "link": "https://mozhi.pussthecat.org",
        "cloudflare": false,
        "host": "Hetzner"
    },
    {
        "country": "Germany",
        "link": "https://mozhi.adminforge.de",
        "cloudflare": false,
        "host": "Hetzner"
    },
    {
        "country": "Finland",
        "link": "https://translate.privacyredirect.com",
        "cloudflare": false,
        "host": "Private WebHost"
    },
    {
        "country": "USA",
        "link": "https://mozhi.canine.tools",
        "cloudflare": false,
        "host": "RoyaleHosting"
    },
    {
        "country": "Germany",
        "link": "https://mozhi.gitro.xyz",
        "cloudflare": false,
        "host": "Hetzner"
    },
    {
        "country": "Russia",
        "link": "https://mzh.dc09.ru",
        "cloudflare": false,
        "host": "TimeWeb Cloud"
    },
    {
        "country": "USA",
        "onion": "http://mozhi.wsuno6lnjdcsiok5mrxvl6e2bdex7nhsqqav6ux7tkwrqiqnulejfbyd.onion",
        "cloudflare": false,
        "host": "Hetzner"
    },
    {
        "country": "Germany",
        "onion": "http://42i2bzogwkph3dvoo2bm6srskf7vvabsphw7uzftymbjjlzgfluhnmid.onion",
        "cloudflare": false,
        "host": "Datalix"
    },
    {
        "country": "Germany",
        "onion": "http://3mu2almmcv7rd7wlwhmkbwqgttntgpqu3hdanutxbv2v72wzbxe5ixqd.onion",
        "cloudflare": false,
        "host": "pawhost.de"
    },
    {
        "country": "Germany",
        "i2p": "http://74lptlnvaukcjnmqefedgna35ahkqexqzq2qq3k7utc2ep4jotcq.b32.i2p",
        "cloudflare": false,
        "host": "pawhost.de"
    }
]